(module Wire_Pads:SolderWirePad_single_0-8mmDrill (layer F.Cu) (tedit 5B1982E7)
  (fp_text reference REF** (at 0 -2.54) (layer F.SilkS) hide
    (effects (font (size 1 1) (thickness 0.15)))
  )
  (fp_text value SolderWirePad_single_0-8mmDrill (at 0 2.54) (layer F.Fab) hide
    (effects (font (size 1 1) (thickness 0.15)))
  )
  (pad 1 thru_hole circle (at 0 0) (size 1.5 1.5) (drill 0.5) (layers *.Cu)
    (zone_connect 0))
)
